{
    "name": "byfn-network",
    "x-type": "hlfv1",
    "version": "1.0.0",
    "channels": {
        "mychannel": {
            "orderers": [
                "orderer.example.com"
            ],
            "peers": {
                "peer0.org1.example.com": {
                    "endorsingPeer": true,
                    "chaincodeQuery": true,
                    "eventSource": true
                },
                "peer1.org1.example.com": {
                    "endorsingPeer": true,
                    "chaincodeQuery": true,
                    "eventSource": true
                },
                "peer0.org2.example.com": {
                    "endorsingPeer": true,
                    "chaincodeQuery": true,
                    "eventSource": true
                },
                "peer1.org2.example.com": {
                    "endorsingPeer": true,
                    "chaincodeQuery": true,
                    "eventSource": true
                }
            }
        }
    },
    "organizations": {
        "Org1": {
            "mspid": "Org1MSP",
            "peers": [
                "peer0.org1.example.com",
                "peer1.org1.example.com"
            ],
            "certificateAuthorities": [
                "ca.org1.example.com"
            ]
        },
        "Org2": {
            "mspid": "Org2MSP",
            "peers": [
                "peer0.org2.example.com",
                "peer1.org2.example.com"
            ],
            "certificateAuthorities": [
                "ca.org2.example.com"
            ]
        }
    },
    "orderers": {
        "orderer.example.com": {
            "url": "grpcs://localhost:7050",
            "grpcOptions": {
                "ssl-target-name-override": "orderer.example.com"
            },
            "tlsCACerts": {
                "pem": "INSERT_ORDERER_CA_CERT"
            }
        }
    },
    "peers": {
        "peer0.org1.example.com": {
            "url": "grpcs://localhost:7051",
            "grpcOptions": {
                "ssl-target-name-override": "peer0.org1.example.com"
            },
            "tlsCACerts": {
                "pem": "INSERT_ORG1_CA_CERT"
            }
        },
        "peer1.org1.example.com": {
            "url": "grpcs://localhost:8051",
            "grpcOptions": {
                "ssl-target-name-override": "peer1.org1.example.com"
            },
            "tlsCACerts": {
                "pem": "INSERT_ORG1_CA_CERT"
            }
        },
        "peer0.org2.example.com": {
            "url": "grpcs://localhost:9051",
            "grpcOptions": {
                "ssl-target-name-override": "peer0.org2.example.com"
            },
            "tlsCACerts": {
                "pem": "INSERT_ORG2_CA_CERT"
            }
        },
        "peer1.org2.example.com": {
            "url": "grpcs://localhost:10051",
            "grpcOptions": {
                "ssl-target-name-override": "peer1.org2.example.com"
            },
            "tlsCACerts": {
                "pem": "INSERT_ORG2_CA_CERT"
            }
        }
    },
    "certificateAuthorities": {
        "ca.org1.example.com": {
            "url": "https://localhost:7054",
            "caName": "ca-org1",
            "httpOptions": {
                "verify": false
            }
        },
        "ca.org2.example.com": {
            "url": "https://localhost:8054",
            "caName": "ca-org2",
            "httpOptions": {
                "verify": false
            }
        }
    }
}
