{
  "network-config": {
    "org1": {
      "name": "peerOrg1",
      "mspid": "Org1MSP",
      "peer1": {
        "requests": "grpcs://127.0.0.1:7051",
        "events": "grpcs://127.0.0.1:7053",
        "server-hostname": "peer0.org1.example.com",
        "tls_cacerts":
          "/home/vagrant/fabric-dev-servers/fabric-samples/first-network/crypto-config/peerOrganizations/org1.example.com/peers/peer0.org1.example.com/tls/ca.crt"
      },
      "peer2": {
        "requests": "grpcs://127.0.0.1:8051",
        "events": "grpcs://127.0.0.1:8053",
        "server-hostname": "peer1.org1.example.com",
        "tls_cacerts":
          "/home/vagrant/fabric-dev-servers/fabric-samples/first-network/crypto-config/peerOrganizations/org1.example.com/peers/peer1.org1.example.com/tls/ca.crt"
      },
      "admin": {
        "key":
          "/home/vagrant/fabric-dev-servers/fabric-samples/first-network/crypto-config/peerOrganizations/org1.example.com/users/Admin@org1.example.com/msp/keystore",
        "cert":
          "/home/vagrant/fabric-dev-servers/fabric-samples/first-network/crypto-config/peerOrganizations/org1.example.com/users/Admin@org1.example.com/msp/signcerts"
      }
    },
    "org2": {
      "name": "peerOrg2",
      "mspid": "Org2MSP",
      "peer1": {
        "requests": "grpcs://127.0.0.1:9051",
        "events": "grpcs://127.0.0.1:9053",
        "server-hostname": "peer0.org2.example.com",
        "tls_cacerts":
          "/home/vagrant/fabric-dev-servers/fabric-samples/first-network/crypto-config/peerOrganizations/org2.example.com/peers/peer0.org2.example.com/tls/ca.crt"
      },
      "peer2": {
        "requests": "grpcs://127.0.0.1:10051",
        "events": "grpcs://127.0.0.1:10053",
        "server-hostname": "peer1.org2.example.com",
        "tls_cacerts":
          "/home/vagrant/fabric-dev-servers/fabric-samples/first-network/crypto-config/peerOrganizations/org2.example.com/peers/peer1.org2.example.com/tls/ca.crt"
      },
      "admin": {
        "key":
          "/home/vagrant/fabric-dev-servers/fabric-samples/first-network/crypto-config/peerOrganizations/org2.example.com/users/Admin@org2.example.com/msp/keystore",
        "cert":
          "/home/vagrant/fabric-dev-servers/fabric-samples/first-network/crypto-config/peerOrganizations/org2.example.com/users/Admin@org2.example.com/msp/signcerts"
      }
    }
  },
  "channel": "mychannel",
  "orderers": [
    {
      "mspid": "OrdererMSP",
      "server-hostname": "orderer.example.com",
      "requests": "grpcs://127.0.0.1:7050",
      "tls_cacerts":
        "/home/vagrant/fabric-dev-servers/fabric-samples/first-network/crypto-config/ordererOrganizations/example.com/orderers/orderer.example.com/tls/ca.crt"
    }
  ],
  "keyValueStore": "/tmp/fabric-client-kvs",
  "configtxgenToolPath": "/home/vagrant/fabric-dev-servers/fabric-samples/bin",
  "SYNC_START_DATE_FORMAT": "YYYY/MM/DD",
  "syncStartDate": "2018/01/01",
  "eventWaitTime": "30000",
  "license": "Apache-2.0",
  "version": "1.1"
}
